[
  {
    "name": "D-Licence",
    "url": "/d-licence",
    "id": "dsafe",
    "children": [
      {
        "icon": "lab la-creative-commons",
        "title": "The D-Licence",
        "description": [
          "A Perpetual Licence",
          "Based on the creative commons international licence"
        ],
        "href": "/d-licence",
        "fragment": "d-licence"
      },
      {
        "icon": "fab fa-creative-commons-nc",
        "title": "The C-Licence",
        "description": [
          "A Funny Circle Operation",
          "Only C-licence certified programs can issue D-Licence content. l;earn more about the C-Licence initiative."
        ],
        "href": "/d-licence",
        "fragment": "c-licence"
      },
      {
        "icon": "las la-baby",
        "title": "D-Safe",
        "description": [
          "What is the D-Label?",
          " It certifies media content that is safe for children, adults and plants."
        ],
        "href": "/d-licence",
        "fragment": "dsafe"
      }
    ]
  },
  {
    "name": "Vision",
    "url": "/vision",
    "id": "vision",
    "children": [
      {
        "icon": "las la-crow",
        "title": "The Vision",
        "description": [
          "When Ethics meets sustainability, an open platform for future generations allowing cross generation communication."
        ],
        "href": "/vision",
        "fragment": "vision"
      },
      {
        "icon": "las la-broadcast-tower",
        "title": "Permanent Shift",
        "description": [
          "Using the latest blockchain technologies, we now can store data permanently on the open web."
        ],
        "href": "/vision",
        "fragment": "permanent_shift"
      },
      {
        "icon": "las la-cloud-sun",
        "title": "Problems and Solution",
        "description": [
          "DataPond's goal is to invert the current trend",
          "help us building the best tool to actively contribute for the increase of earth bio-dioversity.",
          "FREE, Forever"
        ],
        "href": "/vision",
        "fragment": "funny_circle_operation"
      }
    ]
  },
  {
    "name": "Downloads",
    "url": "/downloads",
    "id": "downloads",
    "children": [
      {
        "icon": "las la-video",
        "title": "Video Demo",
        "description": [
          "Watch this short video to learn more about The Library"
        ],
        "href": "/downloads",
        "fragment": "video"
      },
      {
        "icon": "fab fa-windows",
        "title": "Windows",
        "description": [
          "The Library on your computer Free - paid for by community"
        ],
        "href": "/downloads",
        "fragment": "windows"
      },
      {
        "icon": "fab fa-linux",
        "title": "Linux",
        "description": [
          "The Library on your computer Free - paid for by community - AppImage, FlatPak and deb"
        ],
        "href": "/downloads",
        "fragment": "linux"
      },
      {
        "icon": "lab la-opencart",
        "title": "Phone, Mac, Browser",
        "description": [
          "We need help to hire the best talents for a permanent free library."
        ],
        "href": "/downloads",
        "fragment": "upgrade"
      }
    ]
  },
  {
    "name": "Communities",
    "url": "/more",
    "id": "more",
    "children": [

      {
        "icon": "las la-globe",
        "title": "Game mode unlocked",
        "description": [
          "The Library is designed to evolve as a video game"
        ],
        "href": "/more",
        "fragment": "game"
      },
      {
        "icon": "las la-school",
        "title": "Print Keys",
        "description": [
          "Contribute to dozen of permanent free vote keys for the community."
        ],
        "href": "/more",
        "fragment": "key"
      },
      {
        "icon": "las la-chalkboard",
        "title": "Formula",
        "description": [
          "Donate with confidence. An original open formula initiative to keep the library alive."
        ],
        "href": "/more",
        "fragment": "formula"
      }
    ]
  }
]
